[
 {
  "docstatus": 0, 
  "doctype": "GST India State", 
  "first_two_digits_of_tin_no": "33", 
  "modified": "2017-04-06 19:26:47.740345", 
  "name": "TN", 
  "number": "33", 
  "state_code": "TN", 
  "state_name": "Tamil Nadu"
 }, 
 {
  "docstatus": 0, 
  "doctype": "GST India State", 
  "first_two_digits_of_tin_no": "35", 
  "modified": "2017-04-06 19:26:47.406386", 
  "name": "UP", 
  "number": "35", 
  "state_code": "UP", 
  "state_name": "Uttar Pradesh"
 }, 
 {
  "docstatus": 0, 
  "doctype": "GST India State", 
  "first_two_digits_of_tin_no": "36", 
  "modified": "2017-04-06 19:26:47.419471", 
  "name": "UT", 
  "number": "36", 
  "state_code": "UT", 
  "state_name": "Uttarakhand"
 }, 
 {
  "docstatus": 0, 
  "doctype": "GST India State", 
  "first_two_digits_of_tin_no": "37", 
  "modified": "2017-04-06 19:26:47.711666", 
  "name": "WB", 
  "number": "37", 
  "state_code": "WB", 
  "state_name": "West Bengal"
 }, 
 {
  "docstatus": 0, 
  "doctype": "GST India State", 
  "first_two_digits_of_tin_no": "16", 
  "modified": "2017-04-06 19:26:47.853438", 
  "name": "TR", 
  "number": "16", 
  "state_code": "TR", 
  "state_name": "Tripura"
 }, 
 {
  "docstatus": 0, 
  "doctype": "GST India State", 
  "first_two_digits_of_tin_no": "36", 
  "modified": "2017-04-06 19:26:47.873698", 
  "name": "TS", 
  "number": "36", 
  "state_code": "TS", 
  "state_name": "Telangana"
 }, 
 {
  "docstatus": 0, 
  "doctype": "GST India State", 
  "first_two_digits_of_tin_no": "11", 
  "modified": "2017-04-06 19:26:47.894319", 
  "name": "SK", 
  "number": "11", 
  "state_code": "SK", 
  "state_name": "Sikkim"
 }, 
 {
  "docstatus": 0, 
  "doctype": "GST India State", 
  "first_two_digits_of_tin_no": "8", 
  "modified": "2017-04-06 19:26:47.906210", 
  "name": "RJ", 
  "number": "8", 
  "state_code": "RJ", 
  "state_name": "Rajasthan"
 }, 
 {
  "docstatus": 0, 
  "doctype": "GST India State", 
  "first_two_digits_of_tin_no": "3", 
  "modified": "2017-04-06 19:26:47.920774", 
  "name": "PB", 
  "number": "3", 
  "state_code": "PB", 
  "state_name": "Punjab"
 }, 
 {
  "docstatus": 0, 
  "doctype": "GST India State", 
  "first_two_digits_of_tin_no": "34", 
  "modified": "2017-04-06 19:26:47.934599", 
  "name": "PY", 
  "number": "34", 
  "state_code": "PY", 
  "state_name": "Pondicherry"
 }, 
 {
  "docstatus": 0, 
  "doctype": "GST India State", 
  "first_two_digits_of_tin_no": "21", 
  "modified": "2017-04-06 19:26:47.943579", 
  "name": "OR", 
  "number": "21", 
  "state_code": "OR", 
  "state_name": "Odisha"
 }, 
 {
  "docstatus": 0, 
  "doctype": "GST India State", 
  "first_two_digits_of_tin_no": "13", 
  "modified": "2017-04-06 19:26:47.955071", 
  "name": "NL", 
  "number": "13", 
  "state_code": "NL", 
  "state_name": "Nagaland"
 }, 
 {
  "docstatus": 0, 
  "doctype": "GST India State", 
  "first_two_digits_of_tin_no": "15", 
  "modified": "2017-04-06 19:26:47.966371", 
  "name": "MI", 
  "number": "15", 
  "state_code": "MI", 
  "state_name": "Mizoram"
 }, 
 {
  "docstatus": 0, 
  "doctype": "GST India State", 
  "first_two_digits_of_tin_no": "17", 
  "modified": "2017-04-06 19:26:47.977435", 
  "name": "ME", 
  "number": "17", 
  "state_code": "ME", 
  "state_name": "Meghalaya"
 }, 
 {
  "docstatus": 0, 
  "doctype": "GST India State", 
  "first_two_digits_of_tin_no": "14", 
  "modified": "2017-04-06 19:26:47.997660", 
  "name": "MN", 
  "number": "14", 
  "state_code": "MN", 
  "state_name": "Manipur"
 }, 
 {
  "docstatus": 0, 
  "doctype": "GST India State", 
  "first_two_digits_of_tin_no": "27", 
  "modified": "2017-04-06 19:26:48.012842", 
  "name": "MH", 
  "number": "27", 
  "state_code": "MH", 
  "state_name": "Maharashtra"
 }, 
 {
  "docstatus": 0, 
  "doctype": "GST India State", 
  "first_two_digits_of_tin_no": "23", 
  "modified": "2017-04-06 19:26:48.027108", 
  "name": "MP", 
  "number": "23", 
  "state_code": "MP", 
  "state_name": "Madhya Pradesh"
 }, 
 {
  "docstatus": 0, 
  "doctype": "GST India State", 
  "first_two_digits_of_tin_no": "31", 
  "modified": "2017-04-06 19:26:48.036276", 
  "name": "LD", 
  "number": "31", 
  "state_code": "LD", 
  "state_name": "Lakshadweep Islands"
 }, 
 {
  "docstatus": 0, 
  "doctype": "GST India State", 
  "first_two_digits_of_tin_no": "32", 
  "modified": "2017-04-06 19:26:48.047854", 
  "name": "KL", 
  "number": "32", 
  "state_code": "KL", 
  "state_name": "Kerala"
 }, 
 {
  "docstatus": 0, 
  "doctype": "GST India State", 
  "first_two_digits_of_tin_no": "29", 
  "modified": "2017-04-06 19:26:48.059767", 
  "name": "KA", 
  "number": "29", 
  "state_code": "KA", 
  "state_name": "Karnataka"
 }, 
 {
  "docstatus": 0, 
  "doctype": "GST India State", 
  "first_two_digits_of_tin_no": "20", 
  "modified": "2017-04-06 19:26:48.069445", 
  "name": "JH", 
  "number": "20", 
  "state_code": "JH", 
  "state_name": "Jharkhand"
 }, 
 {
  "docstatus": 0, 
  "doctype": "GST India State", 
  "first_two_digits_of_tin_no": "1", 
  "modified": "2017-04-06 19:26:48.081011", 
  "name": "JK", 
  "number": "1", 
  "state_code": "JK", 
  "state_name": "Jammu and Kashmir"
 }, 
 {
  "docstatus": 0, 
  "doctype": "GST India State", 
  "first_two_digits_of_tin_no": "2", 
  "modified": "2017-04-06 19:26:48.090221", 
  "name": "HP", 
  "number": "2", 
  "state_code": "HP", 
  "state_name": "Himachal Pradesh"
 }, 
 {
  "docstatus": 0, 
  "doctype": "GST India State", 
  "first_two_digits_of_tin_no": "6", 
  "modified": "2017-04-06 19:26:48.099498", 
  "name": "HR", 
  "number": "6", 
  "state_code": "HR", 
  "state_name": "Haryana"
 }, 
 {
  "docstatus": 0, 
  "doctype": "GST India State", 
  "first_two_digits_of_tin_no": "24", 
  "modified": "2017-04-06 19:26:48.111226", 
  "name": "GJ", 
  "number": "24", 
  "state_code": "GJ", 
  "state_name": "Gujarat"
 }, 
 {
  "docstatus": 0, 
  "doctype": "GST India State", 
  "first_two_digits_of_tin_no": "30", 
  "modified": "2017-04-06 19:26:48.120952", 
  "name": "GA", 
  "number": "30", 
  "state_code": "GA", 
  "state_name": "Goa"
 }, 
 {
  "docstatus": 0, 
  "doctype": "GST India State", 
  "first_two_digits_of_tin_no": "7", 
  "modified": "2017-04-06 19:26:48.129762", 
  "name": "DL", 
  "number": "7", 
  "state_code": "DL", 
  "state_name": "Delhi"
 }, 
 {
  "docstatus": 0, 
  "doctype": "GST India State", 
  "first_two_digits_of_tin_no": "25", 
  "modified": "2017-04-06 19:26:48.144261", 
  "name": "DD", 
  "number": "25", 
  "state_code": "DD", 
  "state_name": "Daman and Diu"
 }, 
 {
  "docstatus": 0, 
  "doctype": "GST India State", 
  "first_two_digits_of_tin_no": "26", 
  "modified": "2017-04-06 19:26:48.160281", 
  "name": "DN", 
  "number": "26", 
  "state_code": "DN", 
  "state_name": "Dadra and Nagar Haveli"
 }, 
 {
  "docstatus": 0, 
  "doctype": "GST India State", 
  "first_two_digits_of_tin_no": "22", 
  "modified": "2017-04-06 19:26:48.173540", 
  "name": "CT", 
  "number": "22", 
  "state_code": "CT", 
  "state_name": "Chattisgarh"
 }, 
 {
  "docstatus": 0, 
  "doctype": "GST India State", 
  "first_two_digits_of_tin_no": "4", 
  "modified": "2017-04-06 19:26:48.184047", 
  "name": "CH", 
  "number": "4", 
  "state_code": "CH", 
  "state_name": "Chandigarh"
 }, 
 {
  "docstatus": 0, 
  "doctype": "GST India State", 
  "first_two_digits_of_tin_no": "10", 
  "modified": "2017-04-06 19:26:48.193144", 
  "name": "BH", 
  "number": "10", 
  "state_code": "BH", 
  "state_name": "Bihar"
 }, 
 {
  "docstatus": 0, 
  "doctype": "GST India State", 
  "first_two_digits_of_tin_no": "18", 
  "modified": "2017-04-06 19:26:48.206711", 
  "name": "AS", 
  "number": "18", 
  "state_code": "AS", 
  "state_name": "Assam"
 }, 
 {
  "docstatus": 0, 
  "doctype": "GST India State", 
  "first_two_digits_of_tin_no": "12", 
  "modified": "2017-04-06 19:26:48.214772", 
  "name": "AR", 
  "number": "12", 
  "state_code": "AR", 
  "state_name": "Arunachal Pradesh"
 }, 
 {
  "docstatus": 0, 
  "doctype": "GST India State", 
  "first_two_digits_of_tin_no": "37", 
  "modified": "2017-04-06 19:26:48.223037", 
  "name": "AD", 
  "number": "37", 
  "state_code": "AD", 
  "state_name": "Andhra Pradesh (New)"
 }
]